{
    "page": 1,
    "total_results": 396137,
    "total_pages": 19807,
    "results": [
        {
            "popularity": 608.999,
            "vote_count": 1880,
            "video": false,
            "poster_path": "/5Kg76ldv7VxeX9YlcQXiowHgdX6.jpg",
            "id": 297802,
            "adult": false,
            "backdrop_path": "/5A2bMlLfJrAfX9bqAibOL2gCruF.jpg",
            "original_language": "en",
            "original_title": "Aquaman",
            "genre_ids": [
                28,
                12,
                14,
                878
            ],
            "title": "Aquaman",
            "vote_average": 7,
            "overview": "Arthur Curry learns that he is the heir to the underwater kingdom of Atlantis, and must step forward to lead his people and be a hero to the world.",
            "release_date": "2018-12-21"
        },
        {
            "popularity": 380.017,
            "vote_count": 565,
            "video": false,
            "poster_path": "/fw02ONlDhrYjTSZV8XO6hhU3ds3.jpg",
            "id": 424783,
            "adult": false,
            "backdrop_path": "/8bZ7guF94ZyCzi7MLHzXz6E5Lv8.jpg",
            "original_language": "en",
            "original_title": "Bumblebee",
            "genre_ids": [
                28,
                12,
                878
            ],
            "title": "Bumblebee",
            "vote_average": 6.6,
            "overview": "On the run in the year 1987, Bumblebee finds refuge in a junkyard in a small Californian beach town. Charlie, on the cusp of turning 18 and trying to find her place in the world, discovers Bumblebee, battle-scarred and broken.  When Charlie revives him, she quickly learns this is no ordinary yellow VW bug.",
            "release_date": "2018-12-21"
        },
        {
            "popularity": 277.951,
            "vote_count": 476,
            "video": false,
            "poster_path": "/uTVGku4LibMGyKgQvjBtv3OYfAX.jpg",
            "id": 400650,
            "adult": false,
            "backdrop_path": "/cwiJQXezWz876K3jS57Sq56RYCZ.jpg",
            "original_language": "en",
            "original_title": "Mary Poppins Returns",
            "genre_ids": [
                35,
                14,
                10402,
                10751
            ],
            "title": "Mary Poppins Returns",
            "vote_average": 7,
            "overview": "In Depression-era London, a now-grown Jane and Michael Banks, along with Michael's three children, are visited by the enigmatic Mary Poppins following a personal loss. Through her unique magical skills, and with the aid of her friend Jack, she helps the family rediscover the joy and wonder missing in their lives.",
            "release_date": "2018-12-19"
        },
        {
            "popularity": 277.935,
            "id": 405774,
            "video": false,
            "vote_count": 2226,
            "vote_average": 7.2,
            "title": "Bird Box",
            "release_date": "2018-11-12",
            "original_language": "en",
            "original_title": "Bird Box",
            "genre_ids": [
                53,
                18,
                878,
                27
            ],
            "backdrop_path": "/z6m7s4w4Erxnr5k2jc1TZR1AMva.jpg",
            "adult": false,
            "overview": "When a mysterious force decimates the world’s population, only one thing is certain: if you see it, you take your life. Facing the unknown, Malorie finds love, hope and a new beginning only for it to unravel. Now she must flee with her two children down a treacherous river to the one place left that may offer sanctuary. But to survive, they'll have to undertake the perilous two-day journey blindfolded.",
            "poster_path": "/rGfGfgL2pEPCfhIvqHXieXFn7gp.jpg"
        },
        {
            "popularity": 237.49,
            "id": 504172,
            "video": false,
            "vote_count": 84,
            "vote_average": 6.1,
            "title": "The Mule",
            "release_date": "2018-12-14",
            "original_language": "en",
            "original_title": "The Mule",
            "genre_ids": [
                80,
                18,
                53
            ],
            "backdrop_path": "/rQiFIneBiShab7siVvufRPev9oQ.jpg",
            "adult": false,
            "overview": "A 90-year-old horticulturalist and Korean War veteran is caught transporting $3 million worth of cocaine through Illinois for a Mexican drug cartel.",
            "poster_path": "/t0idiLMalKMj2pLsvqHrOM4LPdQ.jpg"
        },
        {
            "popularity": 232.921,
            "id": 335983,
            "video": false,
            "vote_count": 4015,
            "vote_average": 6.5,
            "title": "Venom",
            "release_date": "2018-10-05",
            "original_language": "en",
            "original_title": "Venom",
            "genre_ids": [
                878
            ],
            "backdrop_path": "/VuukZLgaCrho2Ar8Scl9HtV3yD.jpg",
            "adult": false,
            "overview": "Investigative journalist Eddie Brock attempts a comeback following a scandal, but accidentally becomes the host of Venom, a violent, super powerful alien symbiote. Soon, he must rely on his newfound powers to protect the world from a shadowy organization looking for a symbiote of their own.",
            "poster_path": "/2uNW4WbgBXL25BAbXGLnLqX71Sw.jpg"
        },
        {
            "popularity": 220.661,
            "id": 404368,
            "video": false,
            "vote_count": 577,
            "vote_average": 7.4,
            "title": "Ralph Breaks the Internet",
            "release_date": "2018-11-21",
            "original_language": "en",
            "original_title": "Ralph Breaks the Internet",
            "genre_ids": [
                10751,
                16,
                35,
                14
            ],
            "backdrop_path": "/uueLW3Vq0LANUaPvoPzzI6i1LeV.jpg",
            "adult": false,
            "overview": "Six years after the events of \"Wreck-It Ralph,\" Ralph and Vanellope, now friends, discover a wi-fi router in their arcade, leading them into a new adventure.",
            "poster_path": "/8GCoHKfNe4kK0yWhJDYKyM7Zbxk.jpg"
        },
        {
            "popularity": 206.963,
            "vote_count": 427,
            "video": false,
            "poster_path": "/v3QyboWRoA4O9RbcsqH8tJMe8EB.jpg",
            "id": 480530,
            "adult": false,
            "backdrop_path": "/8yqLPNwNCtpOPc3XkOlkSMnghzw.jpg",
            "original_language": "en",
            "original_title": "Creed II",
            "genre_ids": [
                28,
                18
            ],
            "title": "Creed II",
            "vote_average": 6.4,
            "overview": "Follows Adonis Creed's life inside and outside of the ring as he deals with new found fame, issues with his family, and his continuing quest to become a champion.",
            "release_date": "2018-11-21"
        },
        {
            "popularity": 203.411,
            "id": 338952,
            "video": false,
            "vote_count": 2754,
            "vote_average": 6.9,
            "title": "Fantastic Beasts: The Crimes of Grindelwald",
            "release_date": "2018-11-16",
            "original_language": "en",
            "original_title": "Fantastic Beasts: The Crimes of Grindelwald",
            "genre_ids": [
                10751,
                14,
                12
            ],
            "backdrop_path": "/wDN3FIcQQ1HI7mz1OOKYHSQtaiE.jpg",
            "adult": false,
            "overview": "Gellert Grindelwald has escaped imprisonment and has begun gathering followers to his cause—elevating wizards above all non-magical beings. The only one capable of putting a stop to him is the wizard he once called his closest friend, Albus Dumbledore. However, Dumbledore will need to seek help from the wizard who had thwarted Grindelwald once before, his former student Newt Scamander, who agrees to help, unaware of the dangers that lie ahead. Lines are drawn as love and loyalty are tested, even among the truest friends and family, in an increasingly divided wizarding world.",
            "poster_path": "/kQKcbJ9uYkTQql2R8L4jTUz7l90.jpg"
        },
        {
            "popularity": 198.986,
            "id": 324857,
            "video": false,
            "vote_count": 814,
            "vote_average": 8.5,
            "title": "Spider-Man: Into the Spider-Verse",
            "release_date": "2018-12-14",
            "original_language": "en",
            "original_title": "Spider-Man: Into the Spider-Verse",
            "genre_ids": [
                28,
                12,
                16,
                878,
                35
            ],
            "backdrop_path": "/uUiId6cG32JSRI6RyBQSvQtLjz2.jpg",
            "adult": false,
            "overview": "Miles Morales is juggling his life between being a high school student and being Spider-Man. However, when Wilson \"Kingpin\" Fisk uses a super collider, another Spider-Man from another dimension, Peter Parker, accidentally winds up in Miles' dimension. As Peter trains Miles to become a better Spider-Man, they are soon joined by four other Spider-Men from across the \"Spider-Verse\". As all these clashing dimensions start to tear Brooklyn apart, Miles must help the others stop Fisk and return everyone to their own dimensions.",
            "poster_path": "/laMM4lpQSh5z6KIBPwWogkjzBVQ.jpg"
        },
        {
            "popularity": 179.982,
            "vote_count": 0,
            "video": false,
            "poster_path": "/fX9N4ejnjX2T0pfxaMaMvChC6WL.jpg",
            "id": 494113,
            "adult": false,
            "backdrop_path": "/xNOppPb8HGXGORqTmCnTM1TlLjy.jpg",
            "original_language": "no",
            "original_title": "Infisert",
            "genre_ids": [
                27,
                53
            ],
            "title": "Infected",
            "vote_average": 0,
            "overview": "In a post apocalyptic world, former drugstore employee Victoria Hansteen must look to her past in order to save the future of mankind after a virus has turned most of humanity into rabid killers.",
            "release_date": "2018-12-31"
        },
        {
            "popularity": 140.888,
            "vote_count": 455,
            "video": false,
            "poster_path": "/uXJVpPXxZO4L8Rz3IG1Y8XvZJcg.jpg",
            "id": 428078,
            "adult": false,
            "backdrop_path": "/rxYG6Sj95as9rv9wKIHUx6ATWd3.jpg",
            "original_language": "en",
            "original_title": "Mortal Engines",
            "genre_ids": [
                28,
                12,
                878
            ],
            "title": "Mortal Engines",
            "vote_average": 6.1,
            "overview": "Set in a world many thousands of years in the future. Earth’s cities now roam the globe on huge wheels, devouring each other in a struggle for ever diminishing resources. On one of these massive Traction Cities, Tom Natsworthy has an unexpected encounter with a mysterious young woman from the Outlands who will change the course of his life forever.",
            "release_date": "2018-12-14"
        },
        {
            "popularity": 135.558,
            "id": 424139,
            "video": false,
            "vote_count": 1302,
            "vote_average": 6.4,
            "title": "Halloween",
            "release_date": "2018-10-19",
            "original_language": "en",
            "original_title": "Halloween",
            "genre_ids": [
                53,
                27
            ],
            "backdrop_path": "/crn09DUYgmFUPbOroxt1tQSoi0r.jpg",
            "adult": false,
            "overview": "Laurie Strode comes to her final confrontation with Michael Myers, the masked figure who has haunted her since she narrowly escaped his killing spree on Halloween night four decades ago.",
            "poster_path": "/bXs0zkv2iGVViZEy78teg2ycDBm.jpg"
        },
        {
            "popularity": 131.528,
            "vote_count": 17,
            "video": false,
            "poster_path": "/wNJF8R5QE6nBT7DQoKk8t6YD1MM.jpg",
            "id": 505954,
            "adult": false,
            "backdrop_path": "/vDx8XxfYjkn573bCFGF6SkdM33Q.jpg",
            "original_language": "ru",
            "original_title": "Т-34",
            "genre_ids": [
                12,
                18,
                10752
            ],
            "title": "T-34",
            "vote_average": 4.7,
            "overview": "1941 - WWii. the second lieutenant Nikolai ivushkin, commander of a t-34, engages in an unequal battle against the tank ace Klaus Jager in a battle near moscow. His mission is more of a suicide - to destroy a dozen german tanks, all by himself. that said, luck does favour the bold. He wins the battle, barely survives, but loses his tank and lands himself in captivity for three long years... there was little to no chance for ivushkin and Jager to meet again, but the war knows how to throw a curve ball.in the spring of 1944, the Wehrmacht commands Jager to take charge of the ohrdruf  re range and turn it into a training center for elite german armored forces, using the latest t-34 as a running target. this is how Jager and ivushkin cross paths again. Jager o ers ivushkin to become the commander of a legendary tank and pick his crew from fellow camp prisoners. Nothing goes according to plan, though, when ivushkin uses exercises for a daring and carefully planned escape.",
            "release_date": "2018-12-27"
        },
        {
            "popularity": 130.41,
            "id": 299536,
            "video": false,
            "vote_count": 10527,
            "vote_average": 8.3,
            "title": "Avengers: Infinity War",
            "release_date": "2018-04-27",
            "original_language": "en",
            "original_title": "Avengers: Infinity War",
            "genre_ids": [
                12,
                28,
                14
            ],
            "backdrop_path": "/bOGkgRGdhrBYJSLpXaxhXVstddV.jpg",
            "adult": false,
            "overview": "As the Avengers and their allies have continued to protect the world from threats too large for any one hero to handle, a new danger has emerged from the cosmic shadows: Thanos. A despot of intergalactic infamy, his goal is to collect all six Infinity Stones, artifacts of unimaginable power, and use them to inflict his twisted will on all of reality. Everything the Avengers have fought for has led up to this moment - the fate of Earth and existence itself has never been more uncertain.",
            "poster_path": "/7WsyChQLEftFiDOVTGkv3hFpyyt.jpg"
        },
        {
            "popularity": 125.541,
            "id": 300681,
            "video": false,
            "vote_count": 36,
            "vote_average": 5.5,
            "title": "Replicas",
            "release_date": "2019-01-11",
            "original_language": "en",
            "original_title": "Replicas",
            "genre_ids": [
                53,
                878,
                9648
            ],
            "backdrop_path": "/sHPfBVFq7dlnXCz1zFdbEdwcBDJ.jpg",
            "adult": false,
            "overview": "A scientist becomes obsessed with bringing back his family members who died in a traffic accident.",
            "poster_path": "/kEuIYDEJ9ReBbJLb7QeP9KdbjEe.jpg"
        },
        {
            "popularity": 123.086,
            "id": 454293,
            "video": false,
            "vote_count": 493,
            "vote_average": 6,
            "title": "Night School",
            "release_date": "2018-09-28",
            "original_language": "en",
            "original_title": "Night School",
            "genre_ids": [
                35
            ],
            "backdrop_path": "/jJBimY3DXIaIaL4NeGHfR0U0rSh.jpg",
            "adult": false,
            "overview": "Teddy Walker is a successful salesman whose life takes an unexpected turn when he accidentally blows up his place of employment. Forced to attend night school to get his GED, Teddy soon finds himself dealing with a group of misfit students, his former high school nemesis and a feisty teacher who doesn't think he's too bright.",
            "poster_path": "/uQVIQDc3foTPodZw0ie1Or0CXBn.jpg"
        },
        {
            "popularity": 118.308,
            "vote_count": 373,
            "video": false,
            "poster_path": "/AiRfixFcfTkNbn2A73qVJPlpkUo.jpg",
            "id": 375588,
            "adult": false,
            "backdrop_path": "/AuA50D7T7S7OEVcGo0ZKaMhERn0.jpg",
            "original_language": "en",
            "original_title": "Robin Hood",
            "genre_ids": [
                28,
                12,
                53
            ],
            "title": "Robin Hood",
            "vote_average": 5.9,
            "overview": "A war-hardened Crusader and his Moorish commander mount an audacious revolt against the corrupt English crown.",
            "release_date": "2018-11-21"
        },
        {
            "popularity": 116.204,
            "id": 446021,
            "video": false,
            "vote_count": 602,
            "vote_average": 6.7,
            "title": "Bad Times at the El Royale",
            "release_date": "2018-10-12",
            "original_language": "en",
            "original_title": "Bad Times at the El Royale",
            "genre_ids": [
                53,
                80,
                9648,
                18
            ],
            "backdrop_path": "/gb3TVVZNNxVGNfS1NxGaiWZfwnW.jpg",
            "adult": false,
            "overview": "Lake Tahoe, 1969. Seven strangers, each one with a secret to bury, meet at El Royale, a decadent motel with a dark past. In the course of a fateful night, everyone will have one last shot at redemption.",
            "poster_path": "/qExufIc4Rw0e4xdVZlhMdmEDGES.jpg"
        },
        {
            "popularity": 114.522,
            "id": 503314,
            "video": false,
            "vote_count": 92,
            "vote_average": 7.3,
            "title": "Dragon Ball Super: Broly",
            "release_date": "2019-01-16",
            "original_language": "ja",
            "original_title": "Dragon Ball Super: Broly",
            "genre_ids": [
                28,
                16,
                878
            ],
            "backdrop_path": "/6OTRuxpwUUGbmCX3MKP25dOmo59.jpg",
            "adult": false,
            "overview": "Earth is peaceful following the Tournament of Power. Realizing that the universes still hold many more strong people yet to see, Goku spends all his days training to reach even greater heights. Then one day, Goku and Vegeta are faced by a Saiyan called 'Broly' who they've never seen before. The Saiyans were supposed to have been almost completely wiped out in the destruction of Planet Vegeta, so what's this one doing on Earth? This encounter between the three Saiyans who have followed completely different destinies turns into a stupendous battle, with even Frieza (back from Hell) getting caught up in the mix.",
            "poster_path": "/518jdIQHCZmYqIcNCaqbZuDRheV.jpg"
        }
    ]
}
